…
count = full_join(count_vic,count_dect,by="city_state")
count[is.na(count)] = 0
count %>% 
  arrange(desc(vic_number))
```

    ## # A tibble: 50 × 3
    ##    city_state      vic_number unsolved_number
    ##    <chr>                <int>           <int>
    ##  1 Chicago_IL            5535            4073
    ##  2 Philadelphia_PA       3037            1360
    ##  3 Houston_TX            2942            1493
    ##  4 Baltimore_MD          2827            1825
    ##  5 Detroit_MI            2519            1482
    ##  6 Los Angeles_CA        2257            1106
    ##  7 St. Louis_MO          1677             905
    ##  8 Dallas_TX             1567             754
    ##  9 Memphis_TN            1514             483
    ## 10 New Orleans_LA        1434             930
    ## # … with 40 more rows

``` r
count
```

    ## # A tibble: 50 × 3
    ##    city_state     vic_number unsolved_number
    ##    <chr>               <int>           <int>
    ##  1 Albuquerque_NM        378             146
    ##  2 Atlanta_GA            973             373
    ##  3 Baltimore_MD         2827            1825
    ##  4 Baton Rouge_LA        424             196
    ##  5 Birmingham_AL         800             347
    ##  6 Boston_MA             614             310
    ##  7 Buffalo_NY            521             319
    ##  8 Charlotte_NC          687             206
    ##  9 Chicago_IL           5535            4073
    ## 10 Cincinnati_OH         694             309
    ## # … with 40 more rows
…
    ## Warning: All elements of `...` must be named.
    ## Did you want `data = -city_state`?

``` r
city_iterate
```

    ## # A tibble: 50 × 4
    ##    city_state     estimate conf.low conf.high
    ##    <chr>             <dbl>    <dbl>     <dbl>
    ##  1 Albuquerque_NM    0.386    0.337     0.438
    ##  2 Atlanta_GA        0.383    0.353     0.415
    ##  3 Baltimore_MD      0.646    0.628     0.663
    ##  4 Baton Rouge_LA    0.462    0.414     0.511
    ##  5 Birmingham_AL     0.434    0.399     0.469
    ##  6 Boston_MA         0.505    0.465     0.545
    ##  7 Buffalo_NY        0.612    0.569     0.654
    ##  8 Charlotte_NC      0.300    0.266     0.336
    ##  9 Chicago_IL        0.736    0.724     0.747
    ## 10 Cincinnati_OH     0.445    0.408     0.483
    ## # … with 40 more rows
…
## step=3

Let’s simulate when u=1:6

``` r
mean_16 = expand_grid(mean_16 = 1:6, iteration = 1:5000) %>% 
  mutate(t_result = map(mean_16,t_test))
mean_16result = mean_16 %>%   
unnest(t_result)
mean_16result
```

    ## # A tibble: 30,000 × 4
    ##    mean_16 iteration estimate  p.value
    ##      <int>     <int>    <dbl>    <dbl>
    ##  1       1         1  -1.04   0.282   
    ##  2       1         2   2.83   0.000364
    ##  3       1         3   2.35   0.00261 
    ##  4       1         4   0.152  0.849   
    ##  5       1         5   1.52   0.150   
    ##  6       1         6   0.0111 0.990   
    ##  7       1         7   1.82   0.0154  
    ##  8       1         8   1.70   0.0211  
    ##  9       1         9   1.33   0.101   
    ## 10       1        10   1.98   0.0750  
    ## # … with 29,990 more rows
…
